{
    "logger" : {
	"file" : "runtime.log",
	"activeSeverities" : ["Info", "Error"]
    
    },

    "server" : {
	"port" : 5001,
	"max_connections" : 20
    },

    "client" : {
	"port" : 5001,
	"address" : "raspberrypi.local"
    },

    "connection" : {
	"msgRouter" : {
	    "localReqMappings" : [
		{
		}
	    ],
	    "remoteReqIds"     : [
		17,
		51
	    ]
	}
    },

    "services" : [
	{
	    "name"	    : "logger",
	    "address"	    : 9,
	    "msgWaitTime"   : 1000
	},
	{
	    "name"     : "client",
	    "address"  : 10,
	    "msgWaitTime"   : 0
	},
    	{
	    "name"     : "testclient",
	    "address"  : 11,
	    "msgWaitTime"   : 1
	},
    	{
	    "name"     : "cli",
	    "address"  : 12,
	    "msgWaitTime"   : 1
	}



    ]

}
